Crime Data Analysis
…
Rows: 986500 Columns: 28
── Column specification ────────────────────────────────────────────────────────
Delimiter: ","
chr (16): Date Rptd, DATE OCC, TIME OCC, AREA, AREA NAME, Rpt Dist No, Crm C...
dbl (11): DR_NO, Part 1-2, Crm Cd, Vict Age, Premis Cd, Weapon Used Cd, Crm ...
lgl  (1): Crm Cd 4

ℹ Use `spec()` to retrieve the full column specification for this data.
ℹ Specify the column types or set `show_col_types = FALSE` to quiet this message.

crimes.df

# A tibble: 986,500 × 28
       DR_NO `Date Rptd`   `DATE OCC` `TIME OCC` AREA  `AREA NAME` `Rpt Dist No`
       <dbl> <chr>         <chr>      <chr>      <chr> <chr>       <chr>        
 1 190326475 03/01/2020 1… 03/01/202… 2130       07    Wilshire    0784         
 2 200106753 02/09/2020 1… 02/08/202… 1800       01    Central     0182         
 3 200320258 11/11/2020 1… 11/04/202… 1700       03    Southwest   0356         
 4 200907217 05/10/2023 1… 03/10/202… 2037       09    Van Nuys    0964         
 5 220614831 08/18/2022 1… 08/17/202… 1200       06    Hollywood   0666         
 6 231808869 04/04/2023 1… 12/01/202… 2300       18    Southeast   1826         
 7 230110144 04/04/2023 1… 07/03/202… 0900       01    Central     0182         
 8 220314085 07/22/2022 1… 05/12/202… 1110       03    Southwest   0303         
 9 231309864 04/28/2023 1… 12/09/202… 1400       13    Newton      1375         
10 211904005 12/31/2020 1… 12/31/202… 1220       19    Mission     1974         
# ℹ 986,490 more rows
# ℹ 21 more variables: `Part 1-2` <dbl>, `Crm Cd` <dbl>, `Crm Cd Desc` <chr>,
#   Mocodes <chr>, `Vict Age` <dbl>, `Vict Sex` <chr>, `Vict Descent` <chr>,
#   `Premis Cd` <dbl>, `Premis Desc` <chr>, `Weapon Used Cd` <dbl>,
#   `Weapon Desc` <chr>, Status <chr>, `Status Desc` <chr>, `Crm Cd 1` <dbl>,
#   `Crm Cd 2` <dbl>, `Crm Cd 3` <dbl>, `Crm Cd 4` <lgl>, LOCATION <chr>,
#   `Cross Street` <chr>, LAT <dbl>, LON <dbl>
…
# A tibble: 6 × 2
  Code  Beschreibung       
  <chr> <chr>              
1 0100  Suspect Impersonate
2 0101  Aid victim         
3 0102  Blind              
4 0103  Physically disabled
5 0104  Customer           
6 0105  Delivery           

crimes.df <- crimes.df[-24] # Crm Cd 4 is only NA

crimes.df

# A tibble: 986,500 × 27
       DR_NO `Date Rptd`   `DATE OCC` `TIME OCC` AREA  `AREA NAME` `Rpt Dist No`
       <dbl> <chr>         <chr>      <chr>      <chr> <chr>       <chr>        
 1 190326475 03/01/2020 1… 03/01/202… 2130       07    Wilshire    0784         
 2 200106753 02/09/2020 1… 02/08/202… 1800       01    Central     0182         
 3 200320258 11/11/2020 1… 11/04/202… 1700       03    Southwest   0356         
 4 200907217 05/10/2023 1… 03/10/202… 2037       09    Van Nuys    0964         
 5 220614831 08/18/2022 1… 08/17/202… 1200       06    Hollywood   0666         
 6 231808869 04/04/2023 1… 12/01/202… 2300       18    Southeast   1826         
 7 230110144 04/04/2023 1… 07/03/202… 0900       01    Central     0182         
 8 220314085 07/22/2022 1… 05/12/202… 1110       03    Southwest   0303         
 9 231309864 04/28/2023 1… 12/09/202… 1400       13    Newton      1375         
10 211904005 12/31/2020 1… 12/31/202… 1220       19    Mission     1974         
# ℹ 986,490 more rows
# ℹ 20 more variables: `Part 1-2` <dbl>, `Crm Cd` <dbl>, `Crm Cd Desc` <chr>,
#   Mocodes <chr>, `Vict Age` <dbl>, `Vict Sex` <chr>, `Vict Descent` <chr>,
#   `Premis Cd` <dbl>, `Premis Desc` <chr>, `Weapon Used Cd` <dbl>,
#   `Weapon Desc` <chr>, Status <chr>, `Status Desc` <chr>, `Crm Cd 1` <dbl>,
#   `Crm Cd 2` <dbl>, `Crm Cd 3` <dbl>, LOCATION <chr>, `Cross Street` <chr>,
#   LAT <dbl>, LON <dbl>
…
